<svg width="87" height="87" viewBox="0 0 87 87" fill="none" xmlns="http://www.w3.org/2000/svg">
<circle cx="43.5" cy="43.5" r="43.5" fill="white"/>
<circle cx="43.5" cy="43.5" r="42" stroke="#006FB8" stroke-opacity="0.4" stroke-width="3"/>
<path d="M39.4399 59.9999C38.2525 60.0058 37.0652 59.5867 36.1499 58.7247L24.3753 47.6257C22.5571 45.9018 22.5386 43.1034 24.3382 41.3677C26.1378 39.6261 29.0752 39.6084 30.8996 41.3264L39.3719 49.3082L60.0579 29.3181C61.8637 27.5765 64.8011 27.5588 66.6193 29.2768C68.4436 31.0007 68.4622 33.805 66.6626 35.5348L42.7113 58.6834C41.8084 59.5572 40.6273 59.994 39.4399 59.9999Z" fill="#006FB8"/>
</svg>
